[
  {
    "_id": {
      "$oid": "552fa667bf707472f34e4c0f"
    },
    "assigned_to": {
      "$oid": "552ecf0d7d1fde60c45b6ee7"
    },
    "number": "19498851890"
  },
  {
    "_id": {
      "$oid": "552fa7ded66f2a4d62fe3be3"
    },
    "assigned_to": {
      "$oid": "552ecf0d7d1fde60c45b6ee7"
    },
    "number": "19498851891"
  },
  {
    "_id": {
      "$oid": "552fae5139527a0ef5f8c63f"
    },
    "assigned_to": {
      "$oid": "552ecf0d7d1fde60c45b6ee7"
    },
    "number": "19498851892"
  }
]